<?xml version="1.0" encoding="utf-8"?>
<!-- Generator: Adobe Illustrator 24.1.3, SVG Export Plug-In . SVG Version: 6.00 Build 0)  -->
<svg version="1.1" id="Calque_1" xmlns="http://www.w3.org/2000/svg" xmlns:xlink="http://www.w3.org/1999/xlink" x="0px" y="0px"
	 viewBox="0 0 48.9 48.9" style="enable-background:new 0 0 48.9 48.9;" xml:space="preserve">
<style type="text/css">
	.st0{filter:url(#Path_4645);}
	.st1{fill:#FFFFFF;}
</style>
<filter  filterUnits="userSpaceOnUse" height="48.857" id="Path_4645" width="48.857" x="0" y="0">
	<feOffset  input="SourceAlpha"></feOffset>
	<feGaussianBlur  result="blur" stdDeviation="5"></feGaussianBlur>
	<feFlood  flood-color="#fff" flood-opacity="0.557"></feFlood>
	<feComposite  in2="blur" operator="in"></feComposite>
	<feComposite  in="SourceGraphic" operator="over"></feComposite>
</filter>
<g transform="matrix(1, 0, 0, 1, 0, 0)" class="st0">
	<path id="Path_4645-2_1_" class="st1" d="M24.4,0C10.9,0,0,10.9,0,24.4s10.9,24.4,24.4,24.4s24.4-10.9,24.4-24.4
		C48.9,10.9,37.9,0,24.4,0C24.4,0,24.4,0,24.4,0z M24.4,22c5.4,0,9.8,4.4,9.8,9.7c0,4.5-3,8.3-7.3,9.5v5.2H22v-5.2
		c-4.3-1.1-7.3-5-7.3-9.4h4.9c0,2.7,2.2,4.9,4.9,4.9s4.9-2.2,4.9-4.9s-2.2-4.9-4.9-4.9c-5.4,0-9.8-4.4-9.8-9.7c0-4.5,3-8.3,7.3-9.5
		V2.4h4.9v5.2c4.3,1.1,7.3,5,7.3,9.4h-4.9c0-2.7-2.2-4.9-4.9-4.9s-4.9,2.2-4.9,4.9S21.7,22,24.4,22L24.4,22z"/>
</g>
</svg>
